[Sections]
ComponentList=1

[ComponentList]
ncomp=2

[Component_1]
xHsv=02DBD8B4
xFlags=00000000
strName=<Protein>
strUnits=<%>
fConc=12.35
fErr=0.000000000000000000e+000
fFiltMin=-1.000000000000000000e+000
fFiltMax=-1.000000000000000000e+000
fDummy1=0
fDummy2=0
fDummy3=0
strDefClb=<>
fDm=1.000000000000000000e+006
fDp=2.000000000000000000e+000

[Component_2]
xHsv=08D100C2
xFlags=00000000
strName=<Moisture>
strUnits=<%>
fConc=10.59
fErr=0.000000000000000000e+000
fFiltMin=-1.000000000000000000e+000
fFiltMax=-1.000000000000000000e+000
fDummy1=0
fDummy2=0
fDummy3=0
strDefClb=<>
fDm=1.000000000000000000e+006
fDp=2.000000000000000000e+000



