[Sections]
ComponentList=1

[ComponentList]
ncomp=3

[Component_1]
xFlags=00000000
strName=<Probe1>
strUnits=<mm>
strFormat=<%6.3f>
strDefClb=<>
strUsedClb=<>
fConc=-1.000000000000000000e+000
fCorr=0.000000000000000000e+000
fErr=0.000000000000000000e+000
fStdDevMax=-1.000000000000000000e+000
fFiltMin=-1.000000000000000000e+000
fFiltMax=-1.000000000000000000e+000
fRangeMin=-1.000000000000000000e+000
fRangeMax=-1.000000000000000000e+000
fRangeMinDef=-1.000000000000000000e+000
fRangeMaxDef=-1.000000000000000000e+000
fHumidStd=0.000000000000000000e+000
fHumidRef=-1.000000000000000000e+000
fDm=1.000000000000000000e+006
fDp=5.166037596307290800e+160
fRs=2.090967451107694900e-076

[Component_2]
xFlags=00000000
strName=<Probe2>
strUnits=<mm>
strFormat=<%6.3f>
strDefClb=<>
strUsedClb=<>
fConc=-1.000000000000000000e+000
fCorr=0.000000000000000000e+000
fErr=0.000000000000000000e+000
fStdDevMax=-1.000000000000000000e+000
fFiltMin=-1.000000000000000000e+000
fFiltMax=-1.000000000000000000e+000
fRangeMin=-1.000000000000000000e+000
fRangeMax=-1.000000000000000000e+000
fRangeMinDef=-1.000000000000000000e+000
fRangeMaxDef=-1.000000000000000000e+000
fHumidStd=0.000000000000000000e+000
fHumidRef=0.000000000000000000e+000
fDm=1.000000000000000000e+006
fDp=2.914040071971466400e-307
fRs=1.901609659530890500e-316

[Component_3]
xFlags=00000000
strName=<Probe3>
strUnits=<mm>
strFormat=<%6.3f>
strDefClb=<>
strUsedClb=<>
fConc=-1.000000000000000000e+000
fCorr=0.000000000000000000e+000
fErr=0.000000000000000000e+000
fStdDevMax=-1.000000000000000000e+000
fFiltMin=-1.000000000000000000e+000
fFiltMax=-1.000000000000000000e+000
fRangeMin=-1.000000000000000000e+000
fRangeMax=-1.000000000000000000e+000
fRangeMinDef=-1.000000000000000000e+000
fRangeMaxDef=-1.000000000000000000e+000
fHumidStd=0.000000000000000000e+000
fHumidRef=0.000000000000000000e+000
fDm=1.000000000000000000e+006
fDp=2.914040071971466400e-307
fRs=1.901609659530890500e-316

