^D:\DEVELOP\CPPPROJECTS\PARSELAPPSPLUMSHEM\VAL21\NEWMAT10\DEBUG\NEWMAT10.LIB|D:\DEVELOP\CPPPROJECTS\PARSELAPPSPLUMSHEM\VAL21\SPLUMCHEM_PARCEL_BASE\DEBUG\CSAMPLES.OBJ|D:\DEVELOP\CPPPROJECTS\PARSELAPPSPLUMSHEM\VAL21\SPLUMCHEM_PARCEL_BASE\DEBUG\GARMTRANSFORM.OBJ|D:\DEVELOP\CPPPROJECTS\PARSELAPPSPLUMSHEM\VAL21\SPLUMCHEM_PARCEL_BASE\DEBUG\HSOMATRIXUTILS.OBJ|D:\DEVELOP\CPPPROJECTS\PARSELAPPSPLUMSHEM\VAL21\SPLUMCHEM_PARCEL_BASE\DEBUG\LLTIMER.OBJ|D:\DEVELOP\CPPPROJECTS\PARSELAPPSPLUMSHEM\VAL21\SPLUMCHEM_PARCEL_BASE\DEBUG\MATRIXUTILITIES.OBJ|D:\DEVELOP\CPPPROJECTS\PARSELAPPSPLUMSHEM\VAL21\SPLUMCHEM_PARCEL_BASE\DEBUG\MODELHQO.OBJ|D:\DEVELOP\CPPPROJECTS\PARSELAPPSPLUMSHEM\VAL21\SPLUMCHEM_PARCEL_BASE\DEBUG\MODELHSO.OBJ|D:\DEVELOP\CPPPROJECTS\PARSELAPPSPLUMSHEM\VAL21\SPLUMCHEM_PARCEL_BASE\DEBUG\MODELPCA.OBJ|D:\DEVELOP\CPPPROJECTS\PARSELAPPSPLUMSHEM\VAL21\SPLUMCHEM_PARCEL_BASE\DEBUG\MODELPCR.OBJ|D:\DEVELOP\CPPPROJECTS\PARSELAPPSPLUMSHEM\VAL21\SPLUMCHEM_PARCEL_BASE\DEBUG\MODELPLS.OBJ|D:\DEVELOP\CPPPROJECTS\PARSELAPPSPLUMSHEM\VAL21\SPLUMCHEM_PARCEL_BASE\DEBUG\PLSUTILS.OBJ|D:\DEVELOP\CPPPROJECTS\PARSELAPPSPLUMSHEM\VAL21\SPLUMCHEM_PARCEL_BASE\DEBUG\PREPROCUTILS.OBJ|D:\DEVELOP\CPPPROJECTS\PARSELAPPSPLUMSHEM\VAL21\SPLUMCHEM_PARCEL_BASE\DEBUG\QLTCALIBRATION.OBJ|D:\DEVELOP\CPPPROJECTS\PARSELAPPSPLUMSHEM\VAL21\SPLUMCHEM_PARCEL_BASE\DEBUG\QNTCALIBRATION.OBJ|D:\DEVELOP\CPPPROJECTS\PARSELAPPSPLUMSHEM\VAL21\SPLUMCHEM_PARCEL_BASE\DEBUG\SECV.OBJ|D:\DEVELOP\CPPPROJECTS\PARSELAPPSPLUMSHEM\VAL21\SPLUMCHEM_PARCEL_BASE\DEBUG\SPECTRACORRECTION.OBJ|D:\DEVELOP\CPPPROJECTS\PARSELAPPSPLUMSHEM\VAL21\SPLUMCHEM_PARCEL_BASE\DEBUG\SPLINE.OBJ|D:\DEVELOP\CPPPROJECTS\PARSELAPPSPLUMSHEM\VAL21\SPLUMCHEM_PARCEL_BASE\DEBUG\SPLUMCHEM.OBJ|D:\DEVELOP\CPPPROJECTS\PARSELAPPSPLUMSHEM\VAL21\SPLUMCHEM_PARCEL_BASE\DEBUG\SPLUMCHEMSTRUCTS.OBJ|D:\DEVELOP\CPPPROJECTS\PARSELAPPSPLUMSHEM\VAL21\SPLUMCHEM_PARCEL_BASE\DEBUG\TRANSDATA.OBJ
D:\DEVELOP\CPPPROJECTS\PARSELAPPSPLUMSHEM\VC9\DEBUG\SPLUMCHEM_PARCEL.DLL
D:\DEVELOP\CPPPROJECTS\PARSELAPPSPLUMSHEM\VAL21\SPLUMCHEM_PARCEL_BASE\DEBUG\SPLUMCHEM.PDB
