^D:\DEVELOP\CPPPROJECTS\PARSELAPPSPLUMSHEM\VAL21\NEWMAT10\DEBUG\NEWMAT10.LIB|D:\DEVELOP\CPPPROJECTS\PARSELAPPSPLUMSHEM\VAL21\SPLUMCHEM_PARCEL_BASE\DEBUG\CSAMPLES.OBJ|D:\DEVELOP\CPPPROJECTS\PARSELAPPSPLUMSHEM\VAL21\SPLUMCHEM_PARCEL_BASE\DEBUG\GARMTRANSFORM.OBJ|D:\DEVELOP\CPPPROJECTS\PARSELAPPSPLUMSHEM\VAL21\SPLUMCHEM_PARCEL_BASE\DEBUG\HSOMATRIXUTILS.OBJ|D:\DEVELOP\CPPPROJECTS\PARSELAPPSPLUMSHEM\VAL21\SPLUMCHEM_PARCEL_BASE\DEBUG\LLTIMER.OBJ|D:\DEVELOP\CPPPROJECTS\PARSELAPPSPLUMSHEM\VAL21\SPLUMCHEM_PARCEL_BASE\DEBUG\MATRIXUTILITIES.OBJ|D:\DEVELOP\CPPPROJECTS\PARSELAPPSPLUMSHEM\VAL21\SPLUMCHEM_PARCEL_BASE\DEBUG\MODELHQO.OBJ|D:\DEVELOP\CPPPROJECTS\PARSELAPPSPLUMSHEM\VAL21\SPLUMCHEM_PARCEL_BASE\DEBUG\MODELHSO.OBJ|D:\DEVELOP\CPPPROJECTS\PARSELAPPSPLUMSHEM\VAL21\SPLUMCHEM_PARCEL_BASE\DEBUG\MODELPCA.OBJ|D:\DEVELOP\CPPPROJECTS\PARSELAPPSPLUMSHEM\VAL21\SPLUMCHEM_PARCEL_BASE\DEBUG\MODELPCR.OBJ|D:\DEVELOP\CPPPROJECTS\PARSELAPPSPLUMSHEM\VAL21\SPLUMCHEM_PARCEL_BASE\DEBUG\MODELPLS.OBJ|D:\DEVELOP\CPPPROJECTS\PARSELAPPSPLUMSHEM\VAL21\SPLUMCHEM_PARCEL_BASE\DEBUG\PLSUTILS.OBJ|D:\DEVELOP\CPPPROJECTS\PARSELAPPSPLUMSHEM\VAL21\SPLUMCHEM_PARCEL_BASE\DEBUG\PREPROCUTILS.OBJ|D:\DEVELOP\CPPPROJECTS\PARSELAPPSPLUMSHEM\VAL21\SPLUMCHEM_PARCEL_BASE\DEBUG\QLTCALIBRATION.OBJ|D:\DEVELOP\CPPPROJECTS\PARSELAPPSPLUMSHEM\VAL21\SPLUMCHEM_PARCEL_BASE\DEBUG\QNTCALIBRATION.OBJ|D:\DEVELOP\CPPPROJECTS\PARSELAPPSPLUMSHEM\VAL21\SPLUMCHEM_PARCEL_BASE\DEBUG\SECV.OBJ|D:\DEVELOP\CPPPROJECTS\PARSELAPPSPLUMSHEM\VAL21\SPLUMCHEM_PARCEL_BASE\DEBUG\SPECTRACORRECTION.OBJ|D:\DEVELOP\CPPPROJECTS\PARSELAPPSPLUMSHEM\VAL21\SPLUMCHEM_PARCEL_BASE\DEBUG\SPLINE.OBJ|D:\DEVELOP\CPPPROJECTS\PARSELAPPSPLUMSHEM\VAL21\SPLUMCHEM_PARCEL_BASE\DEBUG\SPLUMCHEM.OBJ|D:\DEVELOP\CPPPROJECTS\PARSELAPPSPLUMSHEM\VAL21\SPLUMCHEM_PARCEL_BASE\DEBUG\SPLUMCHEMSTRUCTS.OBJ|D:\DEVELOP\CPPPROJECTS\PARSELAPPSPLUMSHEM\VAL21\SPLUMCHEM_PARCEL_BASE\DEBUG\TRANSDATA.OBJ
D:\DEVELOP\CPPPROJECTS\PARSELAPPSPLUMSHEM\VAL21\NEWMAT10\DEBUG\NEWMAT10.LIB
C:\PROGRAM FILES (X86)\WINDOWS KITS\10\LIB\10.0.19041.0\UM\X86\KERNEL32.LIB
C:\PROGRAM FILES (X86)\WINDOWS KITS\10\LIB\10.0.19041.0\UM\X86\USER32.LIB
C:\PROGRAM FILES (X86)\WINDOWS KITS\10\LIB\10.0.19041.0\UM\X86\GDI32.LIB
C:\PROGRAM FILES (X86)\WINDOWS KITS\10\LIB\10.0.19041.0\UM\X86\WINSPOOL.LIB
C:\PROGRAM FILES (X86)\WINDOWS KITS\10\LIB\10.0.19041.0\UM\X86\COMDLG32.LIB
C:\PROGRAM FILES (X86)\WINDOWS KITS\10\LIB\10.0.19041.0\UM\X86\ADVAPI32.LIB
C:\PROGRAM FILES (X86)\WINDOWS KITS\10\LIB\10.0.19041.0\UM\X86\SHELL32.LIB
C:\PROGRAM FILES (X86)\WINDOWS KITS\10\LIB\10.0.19041.0\UM\X86\OLE32.LIB
C:\PROGRAM FILES (X86)\WINDOWS KITS\10\LIB\10.0.19041.0\UM\X86\OLEAUT32.LIB
C:\PROGRAM FILES (X86)\WINDOWS KITS\10\LIB\10.0.19041.0\UM\X86\UUID.LIB
C:\PROGRAM FILES (X86)\WINDOWS KITS\10\LIB\10.0.19041.0\UM\X86\ODBC32.LIB
C:\PROGRAM FILES (X86)\WINDOWS KITS\10\LIB\10.0.19041.0\UM\X86\ODBCCP32.LIB
D:\DEVELOP\CPPPROJECTS\PARSELAPPSPLUMSHEM\VAL21\SPLUMCHEM_PARCEL_BASE\DEBUG\CSAMPLES.OBJ
D:\DEVELOP\CPPPROJECTS\PARSELAPPSPLUMSHEM\VAL21\SPLUMCHEM_PARCEL_BASE\DEBUG\GARMTRANSFORM.OBJ
D:\DEVELOP\CPPPROJECTS\PARSELAPPSPLUMSHEM\VAL21\SPLUMCHEM_PARCEL_BASE\DEBUG\HSOMATRIXUTILS.OBJ
D:\DEVELOP\CPPPROJECTS\PARSELAPPSPLUMSHEM\VAL21\SPLUMCHEM_PARCEL_BASE\DEBUG\LLTIMER.OBJ
D:\DEVELOP\CPPPROJECTS\PARSELAPPSPLUMSHEM\VAL21\SPLUMCHEM_PARCEL_BASE\DEBUG\MATRIXUTILITIES.OBJ
D:\DEVELOP\CPPPROJECTS\PARSELAPPSPLUMSHEM\VAL21\SPLUMCHEM_PARCEL_BASE\DEBUG\MODELHQO.OBJ
D:\DEVELOP\CPPPROJECTS\PARSELAPPSPLUMSHEM\VAL21\SPLUMCHEM_PARCEL_BASE\DEBUG\MODELHSO.OBJ
D:\DEVELOP\CPPPROJECTS\PARSELAPPSPLUMSHEM\VAL21\SPLUMCHEM_PARCEL_BASE\DEBUG\MODELPCA.OBJ
D:\DEVELOP\CPPPROJECTS\PARSELAPPSPLUMSHEM\VAL21\SPLUMCHEM_PARCEL_BASE\DEBUG\MODELPCR.OBJ
D:\DEVELOP\CPPPROJECTS\PARSELAPPSPLUMSHEM\VAL21\SPLUMCHEM_PARCEL_BASE\DEBUG\MODELPLS.OBJ
D:\DEVELOP\CPPPROJECTS\PARSELAPPSPLUMSHEM\VAL21\SPLUMCHEM_PARCEL_BASE\DEBUG\PLSUTILS.OBJ
D:\DEVELOP\CPPPROJECTS\PARSELAPPSPLUMSHEM\VAL21\SPLUMCHEM_PARCEL_BASE\DEBUG\PREPROCUTILS.OBJ
D:\DEVELOP\CPPPROJECTS\PARSELAPPSPLUMSHEM\VAL21\SPLUMCHEM_PARCEL_BASE\DEBUG\QLTCALIBRATION.OBJ
D:\DEVELOP\CPPPROJECTS\PARSELAPPSPLUMSHEM\VAL21\SPLUMCHEM_PARCEL_BASE\DEBUG\QNTCALIBRATION.OBJ
D:\DEVELOP\CPPPROJECTS\PARSELAPPSPLUMSHEM\VAL21\SPLUMCHEM_PARCEL_BASE\DEBUG\SECV.OBJ
D:\DEVELOP\CPPPROJECTS\PARSELAPPSPLUMSHEM\VAL21\SPLUMCHEM_PARCEL_BASE\DEBUG\SPECTRACORRECTION.OBJ
D:\DEVELOP\CPPPROJECTS\PARSELAPPSPLUMSHEM\VAL21\SPLUMCHEM_PARCEL_BASE\DEBUG\SPLINE.OBJ
D:\DEVELOP\CPPPROJECTS\PARSELAPPSPLUMSHEM\VAL21\SPLUMCHEM_PARCEL_BASE\DEBUG\SPLUMCHEM.OBJ
D:\DEVELOP\CPPPROJECTS\PARSELAPPSPLUMSHEM\VAL21\SPLUMCHEM_PARCEL_BASE\DEBUG\SPLUMCHEMSTRUCTS.OBJ
D:\DEVELOP\CPPPROJECTS\PARSELAPPSPLUMSHEM\VAL21\SPLUMCHEM_PARCEL_BASE\DEBUG\TRANSDATA.OBJ
C:\WINDOWS\GLOBALIZATION\SORTING\SORTDEFAULT.NLS
C:\PROGRAM FILES (X86)\MICROSOFT VISUAL STUDIO\2019\COMMUNITY\VC\TOOLS\MSVC\14.28.29910\BIN\HOSTX86\X86\1049\LINKUI.DLL
C:\PROGRAM FILES (X86)\MICROSOFT VISUAL STUDIO\2019\COMMUNITY\VC\TOOLS\MSVC\14.28.29910\LIB\X86\MSVCPRTD.LIB
C:\PROGRAM FILES (X86)\MICROSOFT VISUAL STUDIO\2019\COMMUNITY\VC\TOOLS\MSVC\14.28.29910\LIB\X86\MSVCRTD.LIB
C:\PROGRAM FILES (X86)\MICROSOFT VISUAL STUDIO\2019\COMMUNITY\VC\TOOLS\MSVC\14.28.29910\LIB\X86\OLDNAMES.LIB
C:\PROGRAM FILES (X86)\MICROSOFT VISUAL STUDIO\2019\COMMUNITY\VC\TOOLS\MSVC\14.28.29910\LIB\X86\VCRUNTIMED.LIB
C:\PROGRAM FILES (X86)\WINDOWS KITS\10\LIB\10.0.19041.0\UCRT\X86\UCRTD.LIB
C:\WINDOWS\SYSTEM32\TZRES.DLL
C:\PROGRAM FILES (X86)\MICROSOFT VISUAL STUDIO\2019\COMMUNITY\VC\TOOLS\MSVC\14.28.29910\BIN\HOSTX86\X86\CVTRES.EXE
