^D:\DEVELOP\CPPPROJECTS\PARSELAPPSPLUMSHEM\VC9\DEBUG\LUMEXDB\ILUMEXDB.OBJ|D:\DEVELOP\CPPPROJECTS\PARSELAPPSPLUMSHEM\VC9\DEBUG\LUMEXDB\LLTIMER.OBJ|D:\DEVELOP\CPPPROJECTS\PARSELAPPSPLUMSHEM\VC9\DEBUG\LUMEXDB\LUMEXDB.OBJ|D:\DEVELOP\CPPPROJECTS\PARSELAPPSPLUMSHEM\VC9\DEBUG\LUMEXDB\STDAFX.OBJ
D:\DEVELOP\CPPPROJECTS\PARSELAPPSPLUMSHEM\VC9\DEBUG\LUMEXDB.DLL
D:\DEVELOP\CPPPROJECTS\PARSELAPPSPLUMSHEM\VC9\DEBUG\LUMEXDB.PDB
