2021-01-15 [19:46:03.674]  	p0-p1: 0.166
2021-01-15 [19:46:03.754]  	p1-p2: 0.073
2021-01-15 [19:46:14.551]  	p2-p3: 10.791
2021-01-15 [19:46:14.762]  	p3-p4: 0.207
2021-01-15 [19:46:14.767]  	p4-p5: 0.000
