2021-04-01 [15:16:44.481]  	SECV: Init           : 0.00000 s (   1 x 0.001 ms)
2021-04-01 [15:16:44.485]  	SECV: pre-cycle      : 0.00456 s (   1 x 4.557 ms)
2021-04-01 [15:16:50.253]  	SECV: preproc spec   : 3.16165 s ( 416 x 7.600 ms)
2021-04-01 [15:16:50.257]  	SECV: preproc comp   : 0.17369 s ( 416 x 0.418 ms)
2021-04-01 [15:16:50.262]  	SECV: model calc     : 2.16757 s ( 416 x 5.211 ms)
2021-04-01 [15:16:50.266]  	SECV: preproc pred   : 0.04176 s ( 416 x 0.100 ms)
2021-04-01 [15:16:50.270]  	SECV: predict        : 0.18866 s ( 416 x 0.454 ms)
2021-04-01 [15:16:50.274]  	SECV: cycle total    : 5.73340 s ( 416 x 13.782 ms)
2021-04-01 [15:16:50.279]  	SECV: PostCycle      : 0.02628 s (   1 x 26.280 ms)
2021-04-01 [15:16:50.283]  	SECV: total          : 5.80208 s (   1 x 5802.084 ms)
