2021-04-01 [15:22:04.479]  	SECV: Init           : 0.00000 s (   1 x 0.001 ms)
2021-04-01 [15:22:04.484]  	SECV: pre-cycle      : 0.00452 s (   1 x 4.519 ms)
2021-04-01 [15:22:10.059]  	SECV: preproc spec   : 3.07006 s ( 416 x 7.380 ms)
2021-04-01 [15:22:10.063]  	SECV: preproc comp   : 0.17340 s ( 416 x 0.417 ms)
2021-04-01 [15:22:10.068]  	SECV: model calc     : 2.08645 s ( 416 x 5.016 ms)
2021-04-01 [15:22:10.072]  	SECV: preproc pred   : 0.04084 s ( 416 x 0.098 ms)
2021-04-01 [15:22:10.076]  	SECV: predict        : 0.17729 s ( 416 x 0.426 ms)
2021-04-01 [15:22:10.081]  	SECV: cycle total    : 5.54816 s ( 416 x 13.337 ms)
2021-04-01 [15:22:10.085]  	SECV: PostCycle      : 0.02649 s (   1 x 26.494 ms)
2021-04-01 [15:22:10.089]  	SECV: total          : 5.61037 s (   1 x 5610.367 ms)
