[Sections]
ComponentList=1

[ComponentList]
ncomp=19

[Component_1]
xFlags=00000000
strName=<nem>
strUnits=<%>
strFormat=<%6.3f>
strDefClb=<>
fConc=9.330000000000000100e+000
fErr=0.000000000000000000e+000
fFiltMin=-1.000000000000000000e+000
fFiltMax=-1.000000000000000000e+000
fDm=1.000000000000000000e+006
fDp=2.835903784854670600e-298

[Component_2]
xFlags=00000000
strName=<ham protein>
strUnits=<%>
strFormat=<%6.3f>
strDefClb=<>
fConc=9.750000000000000000e+000
fErr=0.000000000000000000e+000
fFiltMin=-1.000000000000000000e+000
fFiltMax=-1.000000000000000000e+000
fDm=1.000000000000000000e+006
fDp=2.835903784854670600e-298

[Component_3]
xFlags=00000000
strName=<ham yag>
strUnits=<%>
strFormat=<%6.3f>
strDefClb=<>
fConc=2.109999999999999900e+000
fErr=0.000000000000000000e+000
fFiltMin=-1.000000000000000000e+000
fFiltMax=-1.000000000000000000e+000
fDm=1.000000000000000000e+006
fDp=2.860511321670673500e-298

[Component_4]
xFlags=00000000
strName=<ham seluloz>
strUnits=<%>
strFormat=<%6.3f>
strDefClb=<>
fConc=4.269999999999999600e+000
fErr=0.000000000000000000e+000
fFiltMin=-1.000000000000000000e+000
fFiltMax=-1.000000000000000000e+000
fDm=1.000000000000000000e+006
fDp=2.860511321670673500e-298

[Component_5]
xFlags=00000000
strName=<ham kul>
strUnits=<%>
strFormat=<%6.3f>
strDefClb=<>
fConc=2.279999999999999800e+000
fErr=0.000000000000000000e+000
fFiltMin=-1.000000000000000000e+000
fFiltMax=-1.000000000000000000e+000
fDm=1.000000000000000000e+006
fDp=2.860511321670673500e-298

[Component_6]
xFlags=00000000
strName=<seker>
strUnits=<%>
strFormat=<%6.3f>
strDefClb=<>
fConc=-1.000000000000000000e+000
fErr=0.000000000000000000e+000
fFiltMin=-1.000000000000000000e+000
fFiltMax=-1.000000000000000000e+000
fDm=1.000000000000000000e+006
fDp=2.866672319777198600e-298

[Component_7]
xFlags=00000000
strName=<yabanci madde>
strUnits=<%>
strFormat=<%6.3f>
strDefClb=<>
fConc=-1.000000000000000000e+000
fErr=0.000000000000000000e+000
fFiltMin=-1.000000000000000000e+000
fFiltMax=-1.000000000000000000e+000
fDm=1.000000000000000000e+006
fDp=2.833278994290606900e-298

[Component_8]
xFlags=00000000
strName=<ure>
strUnits=<%>
strFormat=<%6.3f>
strDefClb=<>
fConc=-1.000000000000000000e+000
fErr=0.000000000000000000e+000
fFiltMin=-1.000000000000000000e+000
fFiltMax=-1.000000000000000000e+000
fDm=1.000000000000000000e+006
fDp=2.833278994290606900e-298

[Component_9]
xFlags=00000000
strName=<metabolik enerji>
strUnits=<kcal/kg>
strFormat=<%6.3f>
strDefClb=<>
fConc=2.924000000000000000e+003
fErr=0.000000000000000000e+000
fFiltMin=-1.000000000000000000e+000
fFiltMax=-1.000000000000000000e+000
fDm=1.000000000000000000e+006
fDp=2.866672319777198600e-298

[Component_10]
xFlags=00000000
strName=<HCl de cozulmeyen kul>
strUnits=<%>
strFormat=<%6.3f>
strDefClb=<>
fConc=-1.000000000000000000e+000
fErr=0.000000000000000000e+000
fFiltMin=-1.000000000000000000e+000
fFiltMax=-1.000000000000000000e+000
fDm=1.000000000000000000e+006
fDp=2.833278994290606900e-298

[Component_11]
xFlags=00000000
strName=<kalsiyum>
strUnits=<%>
strFormat=<%6.3f>
strDefClb=<>
fConc=-1.000000000000000000e+000
fErr=0.000000000000000000e+000
fFiltMin=-1.000000000000000000e+000
fFiltMax=-1.000000000000000000e+000
fDm=1.000000000000000000e+006
fDp=2.833278994290606900e-298

[Component_12]
xFlags=00000000
strName=<fosfor>
strUnits=<%>
strFormat=<%6.3f>
strDefClb=<>
fConc=-1.000000000000000000e+000
fErr=0.000000000000000000e+000
fFiltMin=-1.000000000000000000e+000
fFiltMax=-1.000000000000000000e+000
fDm=1.000000000000000000e+006
fDp=2.833278994290606900e-298

[Component_13]
xFlags=00000000
strName=<sodyum>
strUnits=<%>
strFormat=<%6.3f>
strDefClb=<>
fConc=-1.000000000000000000e+000
fErr=0.000000000000000000e+000
fFiltMin=-1.000000000000000000e+000
fFiltMax=-1.000000000000000000e+000
fDm=1.000000000000000000e+006
fDp=2.833278994290606900e-298

[Component_14]
xFlags=00000000
strName=<tuz>
strUnits=<%>
strFormat=<%6.3f>
strDefClb=<>
fConc=-1.000000000000000000e+000
fErr=0.000000000000000000e+000
fFiltMin=-1.000000000000000000e+000
fFiltMax=-1.000000000000000000e+000
fDm=1.000000000000000000e+006
fDp=2.840460736116893400e-298

[Component_15]
xFlags=00000000
strName=<nisasta>
strUnits=<%>
strFormat=<%6.3f>
strDefClb=<>
fConc=-1.000000000000000000e+000
fErr=0.000000000000000000e+000
fFiltMin=-1.000000000000000000e+000
fFiltMax=-1.000000000000000000e+000
fDm=1.000000000000000000e+006
fDp=0.000000000000000000e+000

[Component_16]
xFlags=00000000
strName=<ADF>
strUnits=<%>
strFormat=<%6.3f>
strDefClb=<>
fConc=-1.000000000000000000e+000
fErr=0.000000000000000000e+000
fFiltMin=-1.000000000000000000e+000
fFiltMax=-1.000000000000000000e+000
fDm=1.000000000000000000e+006
fDp=0.000000000000000000e+000

[Component_17]
xFlags=00000000
strName=<NDF>
strUnits=<%>
strFormat=<%6.3f>
strDefClb=<>
fConc=-1.000000000000000000e+000
fErr=0.000000000000000000e+000
fFiltMin=-1.000000000000000000e+000
fFiltMax=-1.000000000000000000e+000
fDm=1.000000000000000000e+006
fDp=2.629798361400868700e-298

[Component_18]
xFlags=00000000
strName=<ADL>
strUnits=<%>
strFormat=<%6.3f>
strDefClb=<>
fConc=-1.000000000000000000e+000
fErr=0.000000000000000000e+000
fFiltMin=-1.000000000000000000e+000
fFiltMax=-1.000000000000000000e+000
fDm=1.000000000000000000e+006
fDp=0.000000000000000000e+000

[Component_19]
xFlags=00000000
strName=<NEL>
strUnits=<kcal/kg>
strFormat=<%6.3f>
strDefClb=<>
fConc=-1.000000000000000000e+000
fErr=0.000000000000000000e+000
fFiltMin=-1.000000000000000000e+000
fFiltMax=-1.000000000000000000e+000
fDm=1.000000000000000000e+006
fDp=0.000000000000000000e+000

